OS,Scaffold,Clean,Install Duration,Source File Count,NPM Dependency Count,NPM Folder Size,NPM File Count,Dev Task Duration,Total Command Duration
osx,grunt,cleantrue,0m45.307s,100,     316, 56M,    8713,0m7.457s,60,Done.
OS,Scaffold,Clean,Install Duration,Source File Count,NPM Dependency Count,NPM Folder Size,NPM File Count,Dev Task Duration,Total Command Duration
osx,gulp,cleantrue,1m5.029s,100,     473, 54M,    8283,0m6.641s,78,Done.
OS,Scaffold,Clean,Install Duration,Source File Count,NPM Dependency Count,NPM Folder Size,NPM File Count,Dev Task Duration,Total Command Duration
osx,npm,cleantrue,0m55.442s,100,     491, 48M,    6766,0m10.621s,75,Done.
OS,Scaffold,Clean,Install Duration,Source File Count,NPM Dependency Count,NPM Folder Size,NPM File Count,Dev Task Duration,Total Command Duration
osx,shell,cleantrue,0m28.216s,100,     240, 34M,    4630,0m5.175s,38,Done.
OS,Scaffold,Clean,Install Duration,Source File Count,NPM Dependency Count,NPM Folder Size,NPM File Count,Dev Task Duration,Total Command Duration
osx,make,cleantrue,0m28.255s,100,     240, 34M,    4630,0m5.693s,38,Done.
