OS,Scaffold,Clean,Install Duration,Source File Count,NPM Dependency Count,NPM Folder Size,NPM File Count,Dev Task Duration,Total Command Duration
linux,grunt,cleanfalse,installfalse,100,316,41M,8691,0m5.662s,18s,Done.
linux,gulp,cleanfalse,installfalse,100,459,40M,8164,0m5.311s,18s,Done.
linux,npm,cleanfalse,installfalse,100,375,31M,5622,0m10.162s,22s,Done.
linux,shell,cleanfalse,installfalse,100,240,27M,4632,0m4.337s,15s,Done.
linux,shellsimple,cleanfalse,installfalse,100,240,27M,4632,0m3.951s,15s,Done.
linux,make,cleanfalse,installfalse,100,240,27M,4632,0m4.923s,17s,Done.
linux,grunt,cleanfalse,installfalse,100,316,41M,8691,0m5.401s,17s,Done.
linux,gulp,cleanfalse,installfalse,100,459,40M,8164,0m5.141s,17s,Done.
linux,npm,cleanfalse,installfalse,100,375,31M,5622,0m10.051s,22s,Done.
linux,shell,cleanfalse,installfalse,100,240,27M,4632,0m4.351s,15s,Done.
linux,shellsimple,cleanfalse,installfalse,100,240,27M,4632,0m3.874s,15s,Done.
linux,make,cleanfalse,installfalse,100,240,27M,4632,0m4.876s,15s,Done.
linux,grunt,cleanfalse,installfalse,100,316,41M,8691,0m5.332s,17s,Done.
linux,gulp,cleanfalse,installfalse,100,459,40M,8164,0m5.314s,17s,Done.
linux,npm,cleanfalse,installfalse,100,375,31M,5622,0m10.077s,21s,Done.
linux,shell,cleanfalse,installfalse,100,240,27M,4632,0m4.401s,15s,Done.
linux,shellsimple,cleanfalse,installfalse,100,240,27M,4632,0m3.975s,17s,Done.
linux,make,cleanfalse,installfalse,100,240,27M,4632,0m4.934s,16s,Done.
linux,grunt,cleanfalse,installfalse,100,316,41M,8691,0m5.500s,18s,Done.
linux,gulp,cleanfalse,installfalse,100,459,40M,8164,0m5.341s,17s,Done.
linux,npm,cleanfalse,installfalse,100,375,31M,5622,0m10.207s,22s,Done.
linux,shell,cleanfalse,installfalse,100,240,27M,4632,0m4.289s,15s,Done.
linux,shellsimple,cleanfalse,installfalse,100,240,27M,4632,0m3.897s,15s,Done.
linux,make,cleanfalse,installfalse,100,240,27M,4632,0m4.862s,15s,Done.
linux,grunt,cleanfalse,installfalse,100,316,41M,8691,0m5.146s,17s,Done.
linux,gulp,cleanfalse,installfalse,100,459,40M,8164,0m5.310s,17s,Done.
linux,npm,cleanfalse,installfalse,100,375,31M,5622,0m10.069s,24s,Done.
linux,shell,cleanfalse,installfalse,100,240,27M,4632,0m4.347s,15s,Done.
linux,shellsimple,cleanfalse,installfalse,100,240,27M,4632,0m3.888s,15s,Done.
linux,make,cleanfalse,installfalse,100,240,27M,4632,0m4.901s,16s,Done.
linux,grunt,cleanfalse,installfalse,100,316,41M,8691,0m5.348s,17s,Done.
linux,gulp,cleanfalse,installfalse,100,459,40M,8164,0m5.342s,18s,Done.
linux,npm,cleanfalse,installfalse,100,375,31M,5622,0m10.086s,21s,Done.
linux,shell,cleanfalse,installfalse,100,240,27M,4632,0m4.339s,16s,Done.
linux,shellsimple,cleanfalse,installfalse,100,240,27M,4632,0m3.872s,14s,Done.
linux,make,cleanfalse,installfalse,100,240,27M,4632,0m4.904s,16s,Done.
linux,grunt,cleanfalse,installfalse,100,316,41M,8691,0m5.431s,18s,Done.
linux,gulp,cleanfalse,installfalse,100,459,40M,8164,0m5.179s,19s,Done.
linux,npm,cleanfalse,installfalse,100,375,31M,5622,0m10.022s,22s,Done.
linux,shell,cleanfalse,installfalse,100,240,27M,4632,0m4.278s,15s,Done.
linux,shellsimple,cleanfalse,installfalse,100,240,27M,4632,0m3.870s,14s,Done.
linux,make,cleanfalse,installfalse,100,240,27M,4632,0m4.937s,16s,Done.
linux,grunt,cleanfalse,installfalse,100,316,41M,8691,0m5.382s,18s,Done.
linux,gulp,cleanfalse,installfalse,100,459,40M,8164,0m5.192s,17s,Done.
linux,npm,cleanfalse,installfalse,100,375,31M,5622,0m10.071s,21s,Done.
linux,shell,cleanfalse,installfalse,100,240,27M,4632,0m4.287s,15s,Done.
linux,shellsimple,cleanfalse,installfalse,100,240,27M,4632,0m3.913s,14s,Done.
linux,make,cleanfalse,installfalse,100,240,27M,4632,0m6.877s,18s,Done.
linux,grunt,cleanfalse,installfalse,100,316,41M,8691,0m5.242s,17s,Done.
linux,gulp,cleanfalse,installfalse,100,459,40M,8164,0m5.282s,18s,Done.
linux,npm,cleanfalse,installfalse,100,375,31M,5622,0m10.005s,21s,Done.
linux,shell,cleanfalse,installfalse,100,240,27M,4632,0m4.292s,15s,Done.
linux,shellsimple,cleanfalse,installfalse,100,240,27M,4632,0m3.881s,15s,Done.
linux,make,cleanfalse,installfalse,100,240,27M,4632,0m4.904s,16s,Done.
linux,grunt,cleanfalse,installfalse,100,316,41M,8691,0m5.458s,17s,Done.
linux,gulp,cleanfalse,installfalse,100,459,40M,8164,0m5.255s,18s,Done.
linux,npm,cleanfalse,installfalse,100,375,31M,5622,0m10.014s,21s,Done.
linux,shell,cleanfalse,installfalse,100,240,27M,4632,0m6.458s,18s,Done.
linux,shellsimple,cleanfalse,installfalse,100,240,27M,4632,0m3.869s,14s,Done.
linux,make,cleanfalse,installfalse,100,240,27M,4632,0m4.898s,16s,Done.
linux,grunt,cleanfalse,installfalse,100,316,41M,8691,0m5.173s,17s,Done.
linux,gulp,cleanfalse,installfalse,100,459,40M,8164,0m5.276s,18s,Done.
linux,npm,cleanfalse,installfalse,100,375,31M,5622,0m10.134s,21s,Done.
linux,shell,cleanfalse,installfalse,100,240,27M,4632,0m4.300s,15s,Done.
linux,shellsimple,cleanfalse,installfalse,100,240,27M,4632,0m3.912s,14s,Done.
linux,make,cleanfalse,installfalse,100,240,27M,4632,0m4.870s,16s,Done.
linux,grunt,cleanfalse,installfalse,100,316,41M,8691,0m5.252s,17s,Done.
linux,gulp,cleanfalse,installfalse,100,459,40M,8164,0m5.315s,18s,Done.
linux,npm,cleanfalse,installfalse,100,375,31M,5622,0m10.197s,24s,Done.
linux,shell,cleanfalse,installfalse,100,240,27M,4632,0m4.307s,15s,Done.
linux,shellsimple,cleanfalse,installfalse,100,240,27M,4632,0m3.948s,15s,Done.
linux,make,cleanfalse,installfalse,100,240,27M,4632,0m4.951s,16s,Done.
linux,grunt,cleanfalse,installfalse,100,316,41M,8691,0m5.424s,18s,Done.
linux,gulp,cleanfalse,installfalse,100,459,40M,8164,0m5.395s,18s,Done.
linux,npm,cleanfalse,installfalse,100,375,31M,5622,0m10.232s,22s,Done.
linux,shell,cleanfalse,installfalse,100,240,27M,4632,0m4.391s,15s,Done.
linux,shellsimple,cleanfalse,installfalse,100,240,27M,4632,0m3.959s,15s,Done.
linux,make,cleanfalse,installfalse,100,240,27M,4632,0m5.047s,16s,Done.
linux,grunt,cleanfalse,installfalse,100,316,41M,8691,0m7.417s,20s,Done.
linux,gulp,cleanfalse,installfalse,100,459,40M,8164,0m5.379s,17s,Done.
linux,npm,cleanfalse,installfalse,100,375,31M,5622,0m10.354s,22s,Done.
linux,shell,cleanfalse,installfalse,100,240,27M,4632,0m4.483s,16s,Done.
linux,shellsimple,cleanfalse,installfalse,100,240,27M,4632,0m3.983s,15s,Done.
linux,make,cleanfalse,installfalse,100,240,27M,4632,0m4.997s,16s,Done.
linux,grunt,cleanfalse,installfalse,100,316,41M,8691,0m5.517s,18s,Done.
linux,gulp,cleanfalse,installfalse,100,459,40M,8164,0m5.383s,18s,Done.
linux,npm,cleanfalse,installfalse,100,375,31M,5622,0m10.371s,22s,Done.
linux,shell,cleanfalse,installfalse,100,240,27M,4632,0m4.419s,15s,Done.
linux,shellsimple,cleanfalse,installfalse,100,240,27M,4632,0m4.000s,17s,Done.
linux,make,cleanfalse,installfalse,100,240,27M,4632,0m5.023s,16s,Done.
linux,grunt,cleanfalse,installfalse,100,316,41M,8691,0m5.355s,17s,Done.
linux,gulp,cleanfalse,installfalse,100,459,40M,8164,0m5.382s,18s,Done.
linux,npm,cleanfalse,installfalse,100,375,31M,5622,0m10.221s,22s,Done.
linux,shell,cleanfalse,installfalse,100,240,27M,4632,0m4.396s,15s,Done.
linux,shellsimple,cleanfalse,installfalse,100,240,27M,4632,0m4.005s,15s,Done.
linux,make,cleanfalse,installfalse,100,240,27M,4632,0m5.015s,16s,Done.
linux,grunt,cleanfalse,installfalse,100,316,41M,8691,0m5.356s,17s,Done.
linux,gulp,cleanfalse,installfalse,100,459,40M,8164,0m5.360s,18s,Done.
linux,npm,cleanfalse,installfalse,100,375,31M,5622,0m10.247s,22s,Done.
linux,shell,cleanfalse,installfalse,100,240,27M,4632,0m4.409s,17s,Done.
linux,shellsimple,cleanfalse,installfalse,100,240,27M,4632,0m3.979s,15s,Done.
linux,make,cleanfalse,installfalse,100,240,27M,4632,0m4.978s,15s,Done.
linux,grunt,cleanfalse,installfalse,100,316,41M,8691,0m5.489s,18s,Done.
linux,gulp,cleanfalse,installfalse,100,459,40M,8164,0m5.365s,17s,Done.
linux,npm,cleanfalse,installfalse,100,375,31M,5622,0m10.315s,22s,Done.
linux,shell,cleanfalse,installfalse,100,240,27M,4632,0m4.391s,16s,Done.
linux,shellsimple,cleanfalse,installfalse,100,240,27M,4632,0m3.988s,15s,Done.
linux,make,cleanfalse,installfalse,100,240,27M,4632,0m4.933s,16s,Done.
linux,grunt,cleanfalse,installfalse,100,316,41M,8691,0m5.213s,17s,Done.
linux,gulp,cleanfalse,installfalse,100,459,40M,8164,0m7.407s,20s,Done.
linux,npm,cleanfalse,installfalse,100,375,31M,5622,0m10.322s,22s,Done.
linux,shell,cleanfalse,installfalse,100,240,27M,4632,0m4.415s,16s,Done.
linux,shellsimple,cleanfalse,installfalse,100,240,27M,4632,0m3.941s,14s,Done.
linux,make,cleanfalse,installfalse,100,240,27M,4632,0m4.990s,16s,Done.
linux,grunt,cleanfalse,installfalse,100,316,41M,8691,0m5.445s,17s,Done.
linux,gulp,cleanfalse,installfalse,100,459,40M,8164,0m5.303s,18s,Done.
linux,npm,cleanfalse,installfalse,100,375,31M,5622,0m10.063s,21s,Done.
linux,shell,cleanfalse,installfalse,100,240,27M,4632,0m4.308s,16s,Done.
linux,shellsimple,cleanfalse,installfalse,100,240,27M,4632,0m3.920s,14s,Done.
linux,make,cleanfalse,installfalse,100,240,27M,4632,0m4.924s,16s,Done.
linux,grunt,cleanfalse,installfalse,100,316,41M,8691,0m5.382s,20s,Done.
linux,gulp,cleanfalse,installfalse,100,459,40M,8164,0m5.307s,18s,Done.
linux,npm,cleanfalse,installfalse,100,375,31M,5622,0m10.519s,22s,Done.
linux,shell,cleanfalse,installfalse,100,240,27M,4632,0m4.494s,15s,Done.
linux,shellsimple,cleanfalse,installfalse,100,240,27M,4632,0m3.924s,15s,Done.
linux,make,cleanfalse,installfalse,100,240,27M,4632,0m4.965s,16s,Done.
linux,grunt,cleanfalse,installfalse,100,316,41M,8691,0m5.257s,18s,Done.
linux,gulp,cleanfalse,installfalse,100,459,40M,8164,0m5.330s,18s,Done.
linux,npm,cleanfalse,installfalse,100,375,31M,5622,0m10.197s,21s,Done.
linux,shell,cleanfalse,installfalse,100,240,27M,4632,0m4.370s,16s,Done.
linux,shellsimple,cleanfalse,installfalse,100,240,27M,4632,0m3.984s,17s,Done.
linux,make,cleanfalse,installfalse,100,240,27M,4632,0m4.957s,16s,Done.
linux,grunt,cleanfalse,installfalse,100,316,41M,8691,0m5.532s,17s,Done.
linux,gulp,cleanfalse,installfalse,100,459,40M,8164,0m5.364s,17s,Done.
linux,npm,cleanfalse,installfalse,100,375,31M,5622,0m10.274s,22s,Done.
linux,shell,cleanfalse,installfalse,100,240,27M,4632,0m4.407s,16s,Done.
linux,shellsimple,cleanfalse,installfalse,100,240,27M,4632,0m3.902s,14s,Done.
linux,make,cleanfalse,installfalse,100,240,27M,4632,0m4.949s,16s,Done.
linux,grunt,cleanfalse,installfalse,100,316,41M,8691,0m5.409s,18s,Done.
linux,gulp,cleanfalse,installfalse,100,459,40M,8164,0m5.311s,18s,Done.
linux,npm,cleanfalse,installfalse,100,375,31M,5622,0m12.223s,24s,Done.
linux,shell,cleanfalse,installfalse,100,240,27M,4632,0m4.343s,15s,Done.
linux,shellsimple,cleanfalse,installfalse,100,240,27M,4632,0m3.907s,15s,Done.
linux,make,cleanfalse,installfalse,100,240,27M,4632,0m4.966s,16s,Done.
linux,grunt,cleanfalse,installfalse,100,316,41M,8691,0m5.520s,18s,Done.
linux,gulp,cleanfalse,installfalse,100,459,40M,8164,0m5.355s,17s,Done.
linux,npm,cleanfalse,installfalse,100,375,31M,5622,0m10.298s,22s,Done.
linux,shell,cleanfalse,installfalse,100,240,27M,4632,0m4.393s,16s,Done.
linux,shellsimple,cleanfalse,installfalse,100,240,27M,4632,0m3.971s,15s,Done.
linux,make,cleanfalse,installfalse,100,240,27M,4632,0m4.952s,16s,Done.
linux,grunt,cleanfalse,installfalse,100,316,41M,8691,0m5.284s,17s,Done.
linux,gulp,cleanfalse,installfalse,100,459,40M,8164,0m5.423s,20s,Done.
linux,npm,cleanfalse,installfalse,100,375,31M,5622,0m10.247s,22s,Done.
linux,shell,cleanfalse,installfalse,100,240,27M,4632,0m4.457s,15s,Done.
linux,shellsimple,cleanfalse,installfalse,100,240,27M,4632,0m3.946s,15s,Done.
linux,make,cleanfalse,installfalse,100,240,27M,4632,0m4.923s,16s,Done.
linux,grunt,cleanfalse,installfalse,100,316,41M,8691,0m5.416s,18s,Done.
linux,gulp,cleanfalse,installfalse,100,459,40M,8164,0m5.433s,18s,Done.
linux,npm,cleanfalse,installfalse,100,375,31M,5622,0m10.181s,21s,Done.
linux,shell,cleanfalse,installfalse,100,240,27M,4632,0m4.412s,16s,Done.
linux,shellsimple,cleanfalse,installfalse,100,240,27M,4632,0m3.952s,15s,Done.
linux,make,cleanfalse,installfalse,100,240,27M,4632,0m7.003s,18s,Done.
linux,grunt,cleanfalse,installfalse,100,316,41M,8691,0m5.454s,17s,Done.
linux,gulp,cleanfalse,installfalse,100,459,40M,8164,0m5.338s,18s,Done.
linux,npm,cleanfalse,installfalse,100,375,31M,5622,0m10.268s,22s,Done.
linux,shell,cleanfalse,installfalse,100,240,27M,4632,0m4.393s,15s,Done.
linux,shellsimple,cleanfalse,installfalse,100,240,27M,4632,0m3.863s,15s,Done.
linux,make,cleanfalse,installfalse,100,240,27M,4632,0m4.868s,16s,Done.
linux,grunt,cleanfalse,installfalse,100,316,41M,8691,0m5.215s,17s,Done.
linux,gulp,cleanfalse,installfalse,100,459,40M,8164,0m5.220s,17s,Done.
linux,npm,cleanfalse,installfalse,100,375,31M,5622,0m10.072s,22s,Done.
linux,shell,cleanfalse,installfalse,100,240,27M,4632,0m6.425s,17s,Done.
linux,shellsimple,cleanfalse,installfalse,100,240,27M,4632,0m3.878s,15s,Done.
linux,make,cleanfalse,installfalse,100,240,27M,4632,0m4.945s,16s,Done.
linux,grunt,cleanfalse,installfalse,100,316,41M,8691,0m5.402s,17s,Done.
linux,gulp,cleanfalse,installfalse,100,459,40M,8164,0m5.336s,18s,Done.
linux,npm,cleanfalse,installfalse,100,375,31M,5622,0m10.124s,22s,Done.
linux,shell,cleanfalse,installfalse,100,240,27M,4632,0m4.327s,15s,Done.
linux,shellsimple,cleanfalse,installfalse,100,240,27M,4632,0m3.905s,15s,Done.
linux,make,cleanfalse,installfalse,100,240,27M,4632,0m4.902s,15s,Done.
linux,grunt,cleanfalse,installfalse,100,316,41M,8691,0m5.367s,17s,Done.
linux,gulp,cleanfalse,installfalse,100,459,40M,8164,0m5.278s,18s,Done.
linux,npm,cleanfalse,installfalse,100,375,31M,5622,0m10.135s,23s,Done.
linux,shell,cleanfalse,installfalse,100,240,27M,4632,0m4.318s,16s,Done.
linux,shellsimple,cleanfalse,installfalse,100,240,27M,4632,0m3.901s,14s,Done.
linux,make,cleanfalse,installfalse,100,240,27M,4632,0m4.972s,16s,Done.
linux,grunt,cleanfalse,installfalse,100,316,41M,8691,0m5.414s,18s,Done.
linux,gulp,cleanfalse,installfalse,100,459,40M,8164,0m5.455s,18s,Done.
linux,npm,cleanfalse,installfalse,100,375,31M,5622,0m10.182s,21s,Done.
linux,shell,cleanfalse,installfalse,100,240,27M,4632,0m4.370s,16s,Done.
linux,shellsimple,cleanfalse,installfalse,100,240,27M,4632,0m3.876s,14s,Done.
linux,make,cleanfalse,installfalse,100,240,27M,4632,0m4.946s,16s,Done.
linux,grunt,cleanfalse,installfalse,100,316,41M,8691,0m7.544s,20s,Done.
linux,gulp,cleanfalse,installfalse,100,459,40M,8164,0m5.345s,17s,Done.
linux,npm,cleanfalse,installfalse,100,375,31M,5622,0m10.155s,22s,Done.
linux,shell,cleanfalse,installfalse,100,240,27M,4632,0m4.330s,15s,Done.
linux,shellsimple,cleanfalse,installfalse,100,240,27M,4632,0m3.923s,15s,Done.
linux,make,cleanfalse,installfalse,100,240,27M,4632,0m4.821s,16s,Done.
linux,grunt,cleanfalse,installfalse,100,316,41M,8691,0m5.389s,17s,Done.
linux,gulp,cleanfalse,installfalse,100,459,40M,8164,0m5.311s,18s,Done.
linux,npm,cleanfalse,installfalse,100,375,31M,5622,0m10.071s,21s,Done.
linux,shell,cleanfalse,installfalse,100,240,27M,4632,0m4.351s,16s,Done.
linux,shellsimple,cleanfalse,installfalse,100,240,27M,4632,0m3.926s,15s,Done.
linux,make,cleanfalse,installfalse,100,240,27M,4632,0m4.988s,17s,Done.
linux,grunt,cleanfalse,installfalse,100,316,41M,8691,0m5.494s,17s,Done.
linux,gulp,cleanfalse,installfalse,100,459,40M,8164,0m5.404s,18s,Done.
linux,npm,cleanfalse,installfalse,100,375,31M,5622,0m10.128s,22s,Done.
linux,shell,cleanfalse,installfalse,100,240,27M,4632,0m4.383s,15s,Done.
linux,shellsimple,cleanfalse,installfalse,100,240,27M,4632,0m3.866s,15s,Done.
linux,make,cleanfalse,installfalse,100,240,27M,4632,0m4.981s,15s,Done.
linux,grunt,cleanfalse,installfalse,100,316,41M,8691,0m5.422s,17s,Done.
linux,gulp,cleanfalse,installfalse,100,459,40M,8164,0m5.314s,18s,Done.
linux,npm,cleanfalse,installfalse,100,375,31M,5622,0m10.166s,21s,Done.
linux,shell,cleanfalse,installfalse,100,240,27M,4632,0m4.330s,18s,Done.
linux,shellsimple,cleanfalse,installfalse,100,240,27M,4632,0m3.952s,15s,Done.
linux,make,cleanfalse,installfalse,100,240,27M,4632,0m4.959s,15s,Done.
linux,grunt,cleanfalse,installfalse,100,316,41M,8691,0m5.432s,17s,Done.
linux,gulp,cleanfalse,installfalse,100,459,40M,8164,0m5.391s,18s,Done.
linux,npm,cleanfalse,installfalse,100,375,31M,5622,0m10.116s,21s,Done.
linux,shell,cleanfalse,installfalse,100,240,27M,4632,0m4.322s,16s,Done.
linux,shellsimple,cleanfalse,installfalse,100,240,27M,4632,0m3.915s,14s,Done.
linux,make,cleanfalse,installfalse,100,240,27M,4632,0m4.946s,16s,Done.
linux,grunt,cleanfalse,installfalse,100,316,41M,8691,0m5.386s,17s,Done.
linux,gulp,cleanfalse,installfalse,100,459,40M,8164,0m7.298s,20s,Done.
linux,npm,cleanfalse,installfalse,100,375,31M,5622,0m10.222s,21s,Done.
linux,shell,cleanfalse,installfalse,100,240,27M,4632,0m4.368s,16s,Done.
linux,shellsimple,cleanfalse,installfalse,100,240,27M,4632,0m3.932s,14s,Done.
linux,make,cleanfalse,installfalse,100,240,27M,4632,0m4.999s,16s,Done.
linux,grunt,cleanfalse,installfalse,100,316,41M,8691,0m5.260s,18s,Done.
linux,gulp,cleanfalse,installfalse,100,459,40M,8164,0m5.414s,18s,Done.
linux,npm,cleanfalse,installfalse,100,375,31M,5622,0m10.136s,21s,Done.
linux,shell,cleanfalse,installfalse,100,240,27M,4632,0m4.364s,15s,Done.
linux,shellsimple,cleanfalse,installfalse,100,240,27M,4632,0m3.950s,15s,Done.
linux,make,cleanfalse,installfalse,100,240,27M,4632,0m5.029s,16s,Done.
linux,grunt,cleanfalse,installfalse,100,316,41M,8691,0m5.434s,20s,Done.
linux,gulp,cleanfalse,installfalse,100,459,40M,8164,0m5.238s,17s,Done.
linux,npm,cleanfalse,installfalse,100,375,31M,5622,0m10.130s,22s,Done.
linux,shell,cleanfalse,installfalse,100,240,27M,4632,0m4.322s,15s,Done.
linux,shellsimple,cleanfalse,installfalse,100,240,27M,4632,0m3.882s,15s,Done.
linux,make,cleanfalse,installfalse,100,240,27M,4632,0m5.014s,16s,Done.
linux,grunt,cleanfalse,installfalse,100,316,41M,8691,0m5.445s,17s,Done.
linux,gulp,cleanfalse,installfalse,100,459,40M,8164,0m5.290s,18s,Done.
linux,npm,cleanfalse,installfalse,100,375,31M,5622,0m10.077s,22s,Done.
linux,shell,cleanfalse,installfalse,100,240,27M,4632,0m4.405s,15s,Done.
linux,shellsimple,cleanfalse,installfalse,100,240,27M,4632,0m4.053s,17s,Done.
linux,make,cleanfalse,installfalse,100,240,27M,4632,0m4.966s,16s,Done.
linux,grunt,cleanfalse,installfalse,100,316,41M,8691,0m5.325s,17s,Done.
linux,gulp,cleanfalse,installfalse,100,459,40M,8164,0m5.400s,18s,Done.
linux,npm,cleanfalse,installfalse,100,375,31M,5622,0m10.246s,22s,Done.
linux,shell,cleanfalse,installfalse,100,240,27M,4632,0m4.397s,15s,Done.
linux,shellsimple,cleanfalse,installfalse,100,240,27M,4632,0m3.889s,15s,Done.
linux,make,cleanfalse,installfalse,100,240,27M,4632,0m4.938s,16s,Done.
linux,grunt,cleanfalse,installfalse,100,316,41M,8691,0m4.566s,15s,Done.
linux,gulp,cleanfalse,installfalse,100,459,40M,8164,0m4.744s,14s,Done.
linux,npm,cleanfalse,installfalse,100,375,31M,5622,0m10.201s,67s,Done.
linux,shell,cleanfalse,installfalse,100,240,27M,4632,0m4.430s,15s,Done.
linux,shellsimple,cleanfalse,installfalse,100,240,27M,4632,0m3.917s,15s,Done.
linux,make,cleanfalse,installfalse,100,240,27M,4632,0m4.953s,16s,Done.
linux,grunt,cleanfalse,installfalse,100,316,41M,8691,0m5.346s,18s,Done.
linux,gulp,cleanfalse,installfalse,100,459,40M,8164,0m5.777s,18s,Done.
linux,npm,cleanfalse,installfalse,100,375,31M,5622,0m10.106s,21s,Done.
linux,shell,cleanfalse,installfalse,100,240,27M,4632,0m4.355s,16s,Done.
linux,shellsimple,cleanfalse,installfalse,100,240,27M,4632,0m3.951s,15s,Done.
linux,make,cleanfalse,installfalse,100,240,27M,4632,0m4.943s,15s,Done.
linux,grunt,cleanfalse,installfalse,100,316,41M,8691,0m6.063s,18s,Done.
linux,gulp,cleanfalse,installfalse,100,459,40M,8164,0m5.282s,17s,Done.
linux,npm,cleanfalse,installfalse,100,375,31M,5622,0m10.148s,22s,Done.
linux,shell,cleanfalse,installfalse,100,240,27M,4632,0m4.292s,15s,Done.
linux,shellsimple,cleanfalse,installfalse,100,240,27M,4632,0m3.865s,15s,Done.
linux,make,cleanfalse,installfalse,100,240,27M,4632,0m4.928s,15s,Done.
linux,grunt,cleanfalse,installfalse,100,316,41M,8691,0m5.473s,17s,Done.
linux,gulp,cleanfalse,installfalse,100,459,40M,8164,0m5.370s,18s,Done.
linux,npm,cleanfalse,installfalse,100,375,31M,5622,0m10.119s,21s,Done.
linux,shell,cleanfalse,installfalse,100,240,27M,4632,0m4.391s,16s,Done.
linux,shellsimple,cleanfalse,installfalse,100,240,27M,4632,0m3.846s,14s,Done.
linux,make,cleanfalse,installfalse,100,240,27M,4632,0m4.965s,16s,Done.
linux,grunt,cleanfalse,installfalse,100,316,41M,8691,0m5.376s,17s,Done.
linux,gulp,cleanfalse,installfalse,100,459,40M,8164,0m5.289s,17s,Done.
linux,npm,cleanfalse,installfalse,100,375,31M,5622,0m10.151s,22s,Done.
linux,shell,cleanfalse,installfalse,100,240,27M,4632,0m4.403s,15s,Done.
linux,shellsimple,cleanfalse,installfalse,100,240,27M,4632,0m3.852s,15s,Done.
linux,make,cleanfalse,installfalse,100,240,27M,4632,0m4.937s,16s,Done.
linux,grunt,cleanfalse,installfalse,100,316,41M,8691,0m5.487s,17s,Done.
linux,gulp,cleanfalse,installfalse,100,459,40M,8164,0m5.401s,18s,Done.
linux,npm,cleanfalse,installfalse,100,375,31M,5622,0m10.059s,21s,Done.
linux,shell,cleanfalse,installfalse,100,240,27M,4632,0m4.339s,16s,Done.
linux,shellsimple,cleanfalse,installfalse,100,240,27M,4632,0m3.944s,14s,Done.
linux,make,cleanfalse,installfalse,100,240,27M,4632,0m4.958s,16s,Done.
linux,grunt,cleanfalse,installfalse,100,316,41M,8691,0m5.476s,18s,Done.
linux,gulp,cleanfalse,installfalse,100,459,40M,8164,0m5.258s,17s,Done.
linux,npm,cleanfalse,installfalse,100,375,31M,5622,0m10.111s,22s,Done.
linux,shell,cleanfalse,installfalse,100,240,27M,4632,0m4.344s,15s,Done.
linux,shellsimple,cleanfalse,installfalse,100,240,27M,4632,0m3.902s,15s,Done.
linux,make,cleanfalse,installfalse,100,240,27M,4632,0m4.914s,15s,Done.
linux,grunt,cleanfalse,installfalse,100,316,41M,8691,0m5.276s,17s,Done.
linux,gulp,cleanfalse,installfalse,100,459,40M,8164,0m5.292s,17s,Done.
linux,npm,cleanfalse,installfalse,100,375,31M,5622,0m10.055s,22s,Done.
linux,shell,cleanfalse,installfalse,100,240,27M,4632,0m4.389s,15s,Done.
linux,shellsimple,cleanfalse,installfalse,100,240,27M,4632,0m3.865s,15s,Done.
linux,make,cleanfalse,installfalse,100,240,27M,4632,0m4.899s,16s,Done.
linux,grunt,cleanfalse,installfalse,100,316,41M,8691,0m5.260s,17s,Done.
linux,gulp,cleanfalse,installfalse,100,459,40M,8164,0m5.382s,18s,Done.
linux,npm,cleanfalse,installfalse,100,375,31M,5622,0m10.156s,21s,Done.
linux,shell,cleanfalse,installfalse,100,240,27M,4632,0m4.347s,16s,Done.
linux,shellsimple,cleanfalse,installfalse,100,240,27M,4632,0m3.965s,15s,Done.
linux,make,cleanfalse,installfalse,100,240,27M,4632,0m4.973s,15s,Done.
linux,grunt,cleanfalse,installfalse,100,316,41M,8691,0m5.499s,17s,Done.
linux,gulp,cleanfalse,installfalse,100,459,40M,8164,0m5.403s,18s,Done.
linux,npm,cleanfalse,installfalse,100,375,31M,5622,0m10.224s,21s,Done.
linux,shell,cleanfalse,installfalse,100,240,27M,4632,0m4.380s,16s,Done.
linux,shellsimple,cleanfalse,installfalse,100,240,27M,4632,0m3.891s,14s,Done.
linux,make,cleanfalse,installfalse,100,240,27M,4632,0m4.934s,16s,Done.
linux,grunt,cleanfalse,installfalse,100,316,41M,8691,0m5.423s,18s,Done.
linux,gulp,cleanfalse,installfalse,100,459,40M,8164,0m5.398s,17s,Done.
linux,npm,cleanfalse,installfalse,100,375,31M,5622,0m10.188s,22s,Done.
linux,shell,cleanfalse,installfalse,100,240,27M,4632,0m4.411s,16s,Done.
linux,shellsimple,cleanfalse,installfalse,100,240,27M,4632,0m3.914s,14s,Done.
linux,make,cleanfalse,installfalse,100,240,27M,4632,0m4.896s,15s,Done.
linux,grunt,cleanfalse,installfalse,100,316,41M,8691,0m5.471s,18s,Done.
linux,gulp,cleanfalse,installfalse,100,459,40M,8164,0m5.357s,18s,Done.
linux,npm,cleanfalse,installfalse,100,375,31M,5622,0m10.088s,21s,Done.
linux,shell,cleanfalse,installfalse,100,240,27M,4632,0m4.434s,15s,Done.
linux,shellsimple,cleanfalse,installfalse,100,240,27M,4632,0m3.818s,15s,Done.
linux,make,cleanfalse,installfalse,100,240,27M,4632,0m4.949s,16s,Done.
linux,grunt,cleanfalse,installfalse,100,316,41M,8691,0m5.301s,17s,Done.
linux,gulp,cleanfalse,installfalse,100,459,40M,8164,0m5.350s,18s,Done.
linux,npm,cleanfalse,installfalse,100,375,31M,5622,0m10.093s,21s,Done.
linux,shell,cleanfalse,installfalse,100,240,27M,4632,0m4.396s,16s,Done.
linux,shellsimple,cleanfalse,installfalse,100,240,27M,4632,0m3.927s,14s,Done.
linux,make,cleanfalse,installfalse,100,240,27M,4632,0m4.862s,16s,Done.
linux,grunt,cleanfalse,installfalse,100,316,41M,8691,0m5.450s,18s,Done.
linux,gulp,cleanfalse,installfalse,100,459,40M,8164,0m5.400s,17s,Done.
linux,npm,cleanfalse,installfalse,100,375,31M,5622,0m10.116s,22s,Done.
linux,shell,cleanfalse,installfalse,100,240,27M,4632,0m4.355s,15s,Done.
linux,shellsimple,cleanfalse,installfalse,100,240,27M,4632,0m3.928s,15s,Done.
linux,make,cleanfalse,installfalse,100,240,27M,4632,0m4.975s,16s,Done.
linux,grunt,cleanfalse,installfalse,100,316,41M,8691,0m5.370s,18s,Done.
linux,gulp,cleanfalse,installfalse,100,459,40M,8164,0m5.416s,17s,Done.
linux,npm,cleanfalse,installfalse,100,375,31M,5622,0m10.201s,22s,Done.
linux,shell,cleanfalse,installfalse,100,240,27M,4632,0m4.407s,15s,Done.
linux,shellsimple,cleanfalse,installfalse,100,240,27M,4632,0m3.871s,15s,Done.
linux,make,cleanfalse,installfalse,100,240,27M,4632,0m4.985s,16s,Done.
linux,grunt,cleanfalse,installfalse,100,316,41M,8691,0m5.285s,17s,Done.
linux,gulp,cleanfalse,installfalse,100,459,40M,8164,0m5.334s,18s,Done.
linux,npm,cleanfalse,installfalse,100,375,31M,5622,0m10.094s,21s,Done.
linux,shell,cleanfalse,installfalse,100,240,27M,4632,0m4.377s,16s,Done.
linux,shellsimple,cleanfalse,installfalse,100,240,27M,4632,0m3.910s,15s,Done.
linux,make,cleanfalse,installfalse,100,240,27M,4632,0m5.020s,15s,Done.
linux,grunt,cleanfalse,installfalse,100,316,41M,8691,0m5.467s,17s,Done.
linux,gulp,cleanfalse,installfalse,100,459,40M,8164,0m5.298s,18s,Done.
linux,npm,cleanfalse,installfalse,100,375,31M,5622,0m10.303s,22s,Done.
linux,shell,cleanfalse,installfalse,100,240,27M,4632,0m4.391s,15s,Done.
linux,shellsimple,cleanfalse,installfalse,100,240,27M,4632,0m3.891s,15s,Done.
linux,make,cleanfalse,installfalse,100,240,27M,4632,0m4.993s,16s,Done.
linux,grunt,cleanfalse,installfalse,100,316,41M,8691,0m5.505s,18s,Done.
linux,gulp,cleanfalse,installfalse,100,459,40M,8164,0m5.295s,18s,Done.
linux,npm,cleanfalse,installfalse,100,375,31M,5622,0m10.192s,21s,Done.
linux,shell,cleanfalse,installfalse,100,240,27M,4632,0m4.378s,16s,Done.
linux,shellsimple,cleanfalse,installfalse,100,240,27M,4632,0m3.885s,15s,Done.
linux,make,cleanfalse,installfalse,100,240,27M,4632,0m5.008s,16s,Done.
linux,grunt,cleanfalse,installfalse,100,316,41M,8691,0m5.490s,17s,Done.
linux,gulp,cleanfalse,installfalse,100,459,40M,8164,0m5.270s,18s,Done.
linux,npm,cleanfalse,installfalse,100,375,31M,5622,0m10.224s,22s,Done.
linux,shell,cleanfalse,installfalse,100,240,27M,4632,0m4.397s,15s,Done.
linux,shellsimple,cleanfalse,installfalse,100,240,27M,4632,0m3.867s,15s,Done.
linux,make,cleanfalse,installfalse,100,240,27M,4632,0m5.034s,16s,Done.
linux,grunt,cleanfalse,installfalse,100,316,41M,8691,0m5.475s,18s,Done.
linux,gulp,cleanfalse,installfalse,100,459,40M,8164,0m5.313s,18s,Done.
linux,npm,cleanfalse,installfalse,100,375,31M,5622,0m10.164s,21s,Done.
linux,shell,cleanfalse,installfalse,100,240,27M,4632,0m4.404s,16s,Done.
linux,shellsimple,cleanfalse,installfalse,100,240,27M,4632,0m3.917s,15s,Done.
linux,make,cleanfalse,installfalse,100,240,27M,4632,0m4.931s,15s,Done.
linux,grunt,cleanfalse,installfalse,100,316,41M,8691,0m5.197s,17s,Done.
linux,gulp,cleanfalse,installfalse,100,459,40M,8164,0m5.417s,18s,Done.
linux,npm,cleanfalse,installfalse,100,375,31M,5622,0m10.133s,21s,Done.
linux,shell,cleanfalse,installfalse,100,240,27M,4632,0m4.400s,16s,Done.
linux,shellsimple,cleanfalse,installfalse,100,240,27M,4632,0m3.959s,15s,Done.
linux,make,cleanfalse,installfalse,100,240,27M,4632,0m4.952s,16s,Done.
linux,grunt,cleanfalse,installfalse,100,316,41M,8691,0m5.386s,17s,Done.
linux,gulp,cleanfalse,installfalse,100,459,40M,8164,0m5.365s,18s,Done.
linux,npm,cleanfalse,installfalse,100,375,31M,5622,0m10.111s,22s,Done.
linux,shell,cleanfalse,installfalse,100,240,27M,4632,0m4.416s,15s,Done.
linux,shellsimple,cleanfalse,installfalse,100,240,27M,4632,0m3.983s,15s,Done.
linux,make,cleanfalse,installfalse,100,240,27M,4632,0m4.993s,16s,Done.
linux,grunt,cleanfalse,installfalse,100,316,41M,8691,0m5.492s,18s,Done.
linux,gulp,cleanfalse,installfalse,100,459,40M,8164,0m5.353s,18s,Done.
linux,npm,cleanfalse,installfalse,100,375,31M,5622,0m10.130s,21s,Done.
linux,shell,cleanfalse,installfalse,100,240,27M,4632,0m4.418s,16s,Done.
linux,shellsimple,cleanfalse,installfalse,100,240,27M,4632,0m3.913s,14s,Done.
linux,make,cleanfalse,installfalse,100,240,27M,4632,0m4.998s,16s,Done.
linux,grunt,cleanfalse,installfalse,100,316,41M,8691,0m5.466s,17s,Done.
linux,gulp,cleanfalse,installfalse,100,459,40M,8164,0m5.470s,18s,Done.
linux,npm,cleanfalse,installfalse,100,375,31M,5622,0m10.190s,22s,Done.
linux,shell,cleanfalse,installfalse,100,240,27M,4632,0m4.338s,15s,Done.
linux,shellsimple,cleanfalse,installfalse,100,240,27M,4632,0m3.912s,14s,Done.
linux,make,cleanfalse,installfalse,100,240,27M,4632,0m4.891s,16s,Done.
linux,grunt,cleanfalse,installfalse,100,316,41M,8691,0m5.189s,17s,Done.
linux,gulp,cleanfalse,installfalse,100,459,40M,8164,0m5.367s,18s,Done.
linux,npm,cleanfalse,installfalse,100,375,31M,5622,0m10.074s,21s,Done.
linux,shell,cleanfalse,installfalse,100,240,27M,4632,0m4.392s,15s,Done.
linux,shellsimple,cleanfalse,installfalse,100,240,27M,4632,0m3.902s,15s,Done.
linux,make,cleanfalse,installfalse,100,240,27M,4632,0m4.966s,16s,Done.
linux,grunt,cleanfalse,installfalse,100,316,41M,8691,0m5.564s,18s,Done.
linux,gulp,cleanfalse,installfalse,100,459,40M,8164,0m5.312s,17s,Done.
linux,npm,cleanfalse,installfalse,100,375,31M,5622,0m10.203s,22s,Done.
linux,shell,cleanfalse,installfalse,100,240,27M,4632,0m4.346s,15s,Done.
linux,shellsimple,cleanfalse,installfalse,100,240,27M,4632,0m3.902s,15s,Done.
linux,make,cleanfalse,installfalse,100,240,27M,4632,0m5.049s,16s,Done.
linux,grunt,cleanfalse,installfalse,100,316,41M,8691,0m5.467s,17s,Done.
linux,gulp,cleanfalse,installfalse,100,459,40M,8164,0m5.262s,18s,Done.
linux,npm,cleanfalse,installfalse,100,375,31M,5622,0m10.130s,21s,Done.
linux,shell,cleanfalse,installfalse,100,240,27M,4632,0m4.392s,16s,Done.
linux,shellsimple,cleanfalse,installfalse,100,240,27M,4632,0m3.955s,14s,Done.
linux,make,cleanfalse,installfalse,100,240,27M,4632,0m4.876s,16s,Done.
linux,grunt,cleanfalse,installfalse,100,316,41M,8691,0m5.291s,17s,Done.
linux,gulp,cleanfalse,installfalse,100,459,40M,8164,0m5.435s,18s,Done.
linux,npm,cleanfalse,installfalse,100,375,31M,5622,0m10.102s,22s,Done.
linux,shell,cleanfalse,installfalse,100,240,27M,4632,0m4.392s,15s,Done.
linux,shellsimple,cleanfalse,installfalse,100,240,27M,4632,0m3.950s,14s,Done.
linux,make,cleanfalse,installfalse,100,240,27M,4632,0m4.909s,15s,Done.
linux,grunt,cleanfalse,installfalse,100,316,41M,8691,0m5.398s,18s,Done.
linux,gulp,cleanfalse,installfalse,100,459,40M,8164,0m5.354s,17s,Done.
linux,npm,cleanfalse,installfalse,100,375,31M,5622,0m10.099s,22s,Done.
linux,shell,cleanfalse,installfalse,100,240,27M,4632,0m4.384s,15s,Done.
linux,shellsimple,cleanfalse,installfalse,100,240,27M,4632,0m3.902s,15s,Done.
linux,make,cleanfalse,installfalse,100,240,27M,4632,0m5.015s,16s,Done.
linux,grunt,cleanfalse,installfalse,100,316,41M,8691,0m5.485s,17s,Done.
linux,gulp,cleanfalse,installfalse,100,459,40M,8164,0m5.356s,18s,Done.
linux,npm,cleanfalse,installfalse,100,375,31M,5622,0m10.219s,21s,Done.
linux,shell,cleanfalse,installfalse,100,240,27M,4632,0m4.327s,16s,Done.
linux,shellsimple,cleanfalse,installfalse,100,240,27M,4632,0m3.939s,14s,Done.
linux,make,cleanfalse,installfalse,100,240,27M,4632,0m4.921s,16s,Done.
linux,grunt,cleanfalse,installfalse,100,316,41M,8691,0m5.362s,17s,Done.
linux,gulp,cleanfalse,installfalse,100,459,40M,8164,0m5.285s,18s,Done.
linux,npm,cleanfalse,installfalse,100,375,31M,5622,0m10.154s,22s,Done.
linux,shell,cleanfalse,installfalse,100,240,27M,4632,0m4.370s,15s,Done.
linux,shellsimple,cleanfalse,installfalse,100,240,27M,4632,0m3.861s,15s,Done.
linux,make,cleanfalse,installfalse,100,240,27M,4632,0m4.920s,16s,Done.
linux,grunt,cleanfalse,installfalse,100,316,41M,8691,0m5.493s,17s,Done.
linux,gulp,cleanfalse,installfalse,100,459,40M,8164,0m5.402s,18s,Done.
linux,npm,cleanfalse,installfalse,100,375,31M,5622,0m10.094s,22s,Done.
linux,shell,cleanfalse,installfalse,100,240,27M,4632,0m4.391s,15s,Done.
linux,shellsimple,cleanfalse,installfalse,100,240,27M,4632,0m3.918s,15s,Done.
linux,make,cleanfalse,installfalse,100,240,27M,4632,0m5.002s,15s,Done.
linux,grunt,cleanfalse,installfalse,100,316,41M,8691,0m5.477s,17s,Done.
linux,gulp,cleanfalse,installfalse,100,459,40M,8164,0m5.326s,18s,Done.
linux,npm,cleanfalse,installfalse,100,375,31M,5622,0m10.160s,21s,Done.
linux,shell,cleanfalse,installfalse,100,240,27M,4632,0m4.402s,15s,Done.
linux,shellsimple,cleanfalse,installfalse,100,240,27M,4632,0m3.898s,15s,Done.
linux,make,cleanfalse,installfalse,100,240,27M,4632,0m4.934s,16s,Done.
linux,grunt,cleanfalse,installfalse,100,316,41M,8691,0m5.384s,17s,Done.
linux,gulp,cleanfalse,installfalse,100,459,40M,8164,0m5.308s,18s,Done.
linux,npm,cleanfalse,installfalse,100,375,31M,5622,0m10.166s,22s,Done.
linux,shell,cleanfalse,installfalse,100,240,27M,4632,0m4.423s,15s,Done.
linux,shellsimple,cleanfalse,installfalse,100,240,27M,4632,0m3.926s,15s,Done.
linux,make,cleanfalse,installfalse,100,240,27M,4632,0m4.999s,15s,Done.
linux,grunt,cleanfalse,installfalse,100,316,41M,8691,0m5.443s,17s,Done.
linux,gulp,cleanfalse,installfalse,100,459,40M,8164,0m5.319s,18s,Done.
linux,npm,cleanfalse,installfalse,100,375,31M,5622,0m10.162s,21s,Done.
linux,shell,cleanfalse,installfalse,100,240,27M,4632,0m4.350s,16s,Done.
linux,shellsimple,cleanfalse,installfalse,100,240,27M,4632,0m3.931s,14s,Done.
linux,make,cleanfalse,installfalse,100,240,27M,4632,0m4.889s,16s,Done.
linux,grunt,cleanfalse,installfalse,100,316,41M,8691,0m5.403s,17s,Done.
linux,gulp,cleanfalse,installfalse,100,459,40M,8164,0m5.411s,18s,Done.
linux,npm,cleanfalse,installfalse,100,375,31M,5622,0m10.144s,22s,Done.
linux,shell,cleanfalse,installfalse,100,240,27M,4632,0m4.346s,15s,Done.
linux,shellsimple,cleanfalse,installfalse,100,240,27M,4632,0m3.935s,15s,Done.
linux,make,cleanfalse,installfalse,100,240,27M,4632,0m4.869s,16s,Done.
linux,grunt,cleanfalse,installfalse,100,316,41M,8691,0m5.272s,17s,Done.
linux,gulp,cleanfalse,installfalse,100,459,40M,8164,0m5.395s,18s,Done.
linux,npm,cleanfalse,installfalse,100,375,31M,5622,0m10.056s,21s,Done.
linux,shell,cleanfalse,installfalse,100,240,27M,4632,0m4.400s,15s,Done.
linux,shellsimple,cleanfalse,installfalse,100,240,27M,4632,0m3.925s,15s,Done.
linux,make,cleanfalse,installfalse,100,240,27M,4632,0m4.970s,16s,Done.
linux,grunt,cleanfalse,installfalse,100,316,41M,8691,0m5.463s,18s,Done.
linux,gulp,cleanfalse,installfalse,100,459,40M,8164,0m5.336s,17s,Done.
linux,npm,cleanfalse,installfalse,100,375,31M,5622,0m10.126s,22s,Done.
linux,shell,cleanfalse,installfalse,100,240,27M,4632,0m4.427s,15s,Done.
linux,shellsimple,cleanfalse,installfalse,100,240,27M,4632,0m3.932s,15s,Done.
linux,make,cleanfalse,installfalse,100,240,27M,4632,0m5.009s,16s,Done.
linux,grunt,cleanfalse,installfalse,100,316,41M,8691,0m5.494s,17s,Done.
linux,gulp,cleanfalse,installfalse,100,459,40M,8164,0m5.356s,17s,Done.
linux,npm,cleanfalse,installfalse,100,375,31M,5622,0m10.157s,22s,Done.
linux,shell,cleanfalse,installfalse,100,240,27M,4632,0m4.359s,15s,Done.
linux,shellsimple,cleanfalse,installfalse,100,240,27M,4632,0m3.835s,15s,Done.
linux,make,cleanfalse,installfalse,100,240,27M,4632,0m4.873s,16s,Done.
linux,grunt,cleanfalse,installfalse,100,316,41M,8691,0m5.374s,17s,Done.
linux,gulp,cleanfalse,installfalse,100,459,40M,8164,0m5.400s,18s,Done.
linux,npm,cleanfalse,installfalse,100,375,31M,5622,0m10.138s,21s,Done.
linux,shell,cleanfalse,installfalse,100,240,27M,4632,0m4.362s,16s,Done.
linux,shellsimple,cleanfalse,installfalse,100,240,27M,4632,0m3.913s,14s,Done.
linux,make,cleanfalse,installfalse,100,240,27M,4632,0m4.879s,16s,Done.
linux,grunt,cleanfalse,installfalse,100,316,41M,8691,0m5.299s,18s,Done.
linux,gulp,cleanfalse,installfalse,100,459,40M,8164,0m5.432s,17s,Done.
linux,npm,cleanfalse,installfalse,100,375,31M,5622,0m10.074s,22s,Done.
linux,shell,cleanfalse,installfalse,100,240,27M,4632,0m4.422s,15s,Done.
linux,shellsimple,cleanfalse,installfalse,100,240,27M,4632,0m3.842s,15s,Done.
linux,make,cleanfalse,installfalse,100,240,27M,4632,0m5.024s,16s,Done.
linux,grunt,cleanfalse,installfalse,100,316,41M,8691,0m5.577s,18s,Done.
linux,gulp,cleanfalse,installfalse,100,459,40M,8164,0m5.481s,18s,Done.
linux,npm,cleanfalse,installfalse,100,375,31M,5622,0m10.237s,22s,Done.
linux,shell,cleanfalse,installfalse,100,240,27M,4632,0m4.668s,16s,Done.
linux,shellsimple,cleanfalse,installfalse,100,240,27M,4632,0m4.136s,16s,Done.
linux,make,cleanfalse,installfalse,100,240,27M,4632,0m5.054s,16s,Done.
linux,grunt,cleanfalse,installfalse,100,316,41M,8691,0m5.678s,18s,Done.
linux,gulp,cleanfalse,installfalse,100,459,40M,8164,0m5.493s,19s,Done.
linux,npm,cleanfalse,installfalse,100,375,31M,5622,0m10.687s,22s,Done.
linux,shell,cleanfalse,installfalse,100,240,27M,4632,0m4.527s,16s,Done.
linux,shellsimple,cleanfalse,installfalse,100,240,27M,4632,0m4.160s,16s,Done.
linux,make,cleanfalse,installfalse,100,240,27M,4632,0m5.053s,16s,Done.
linux,grunt,cleanfalse,installfalse,100,316,41M,8691,0m5.574s,17s,Done.
linux,gulp,cleanfalse,installfalse,100,459,40M,8164,0m5.473s,18s,Done.
linux,npm,cleanfalse,installfalse,100,375,31M,5622,0m10.236s,22s,Done.
linux,shell,cleanfalse,installfalse,100,240,27M,4632,0m4.354s,15s,Done.
linux,shellsimple,cleanfalse,installfalse,100,240,27M,4632,0m3.936s,15s,Done.
linux,make,cleanfalse,installfalse,100,240,27M,4632,0m5.023s,16s,Done.
linux,grunt,cleanfalse,installfalse,100,316,41M,8691,0m5.473s,18s,Done.
linux,gulp,cleanfalse,installfalse,100,459,40M,8164,0m5.417s,18s,Done.
linux,npm,cleanfalse,installfalse,100,375,31M,5622,0m10.292s,22s,Done.
linux,shell,cleanfalse,installfalse,100,240,27M,4632,0m4.425s,15s,Done.
linux,shellsimple,cleanfalse,installfalse,100,240,27M,4632,0m3.928s,15s,Done.
linux,make,cleanfalse,installfalse,100,240,27M,4632,0m4.960s,16s,Done.
linux,grunt,cleanfalse,installfalse,100,316,41M,8691,0m5.383s,18s,Done.
linux,gulp,cleanfalse,installfalse,100,459,40M,8164,0m6.066s,19s,Done.
linux,npm,cleanfalse,installfalse,100,375,31M,5622,0m10.786s,23s,Done.
linux,shell,cleanfalse,installfalse,100,240,27M,4632,0m4.480s,16s,Done.
linux,shellsimple,cleanfalse,installfalse,100,240,27M,4632,0m4.110s,15s,Done.
linux,make,cleanfalse,installfalse,100,240,27M,4632,0m5.088s,17s,Done.
linux,grunt,cleanfalse,installfalse,100,316,41M,8691,0m5.621s,18s,Done.
linux,gulp,cleanfalse,installfalse,100,459,40M,8164,0m6.074s,19s,Done.
linux,npm,cleanfalse,installfalse,100,375,31M,5622,0m10.666s,23s,Done.
linux,shell,cleanfalse,installfalse,100,240,27M,4632,0m4.756s,16s,Done.
linux,shellsimple,cleanfalse,installfalse,100,240,27M,4632,0m4.093s,16s,Done.
linux,make,cleanfalse,installfalse,100,240,27M,4632,0m4.961s,16s,Done.
linux,grunt,cleanfalse,installfalse,100,316,41M,8691,0m5.517s,17s,Done.
linux,gulp,cleanfalse,installfalse,100,459,40M,8164,0m5.432s,19s,Done.
linux,npm,cleanfalse,installfalse,100,375,31M,5622,0m10.379s,22s,Done.
linux,shell,cleanfalse,installfalse,100,240,27M,4632,0m4.490s,15s,Done.
linux,shellsimple,cleanfalse,installfalse,100,240,27M,4632,0m3.994s,15s,Done.
linux,make,cleanfalse,installfalse,100,240,27M,4632,0m5.071s,17s,Done.
linux,grunt,cleanfalse,installfalse,100,316,41M,8691,0m5.534s,18s,Done.
linux,gulp,cleanfalse,installfalse,100,459,40M,8164,0m5.361s,18s,Done.
linux,npm,cleanfalse,installfalse,100,375,31M,5622,0m10.229s,22s,Done.
linux,shell,cleanfalse,installfalse,100,240,27M,4632,0m5.160s,17s,Done.
linux,shellsimple,cleanfalse,installfalse,100,240,27M,4632,0m4.735s,17s,Done.
linux,make,cleanfalse,installfalse,100,240,27M,4632,0m5.200s,16s,Done.
linux,grunt,cleanfalse,installfalse,100,316,41M,8691,0m5.805s,18s,Done.
linux,gulp,cleanfalse,installfalse,100,459,40M,8164,0m5.497s,18s,Done.
linux,npm,cleanfalse,installfalse,100,375,31M,5622,0m10.779s,23s,Done.
linux,shell,cleanfalse,installfalse,100,240,27M,4632,0m5.024s,16s,Done.
linux,shellsimple,cleanfalse,installfalse,100,240,27M,4632,0m4.497s,16s,Done.
linux,make,cleanfalse,installfalse,100,240,27M,4632,0m5.111s,17s,Done.
linux,grunt,cleanfalse,installfalse,100,316,41M,8691,0m5.461s,18s,Done.
linux,gulp,cleanfalse,installfalse,100,459,40M,8164,0m5.412s,18s,Done.
linux,npm,cleanfalse,installfalse,100,375,31M,5622,0m10.295s,22s,Done.
linux,shell,cleanfalse,installfalse,100,240,27M,4632,0m4.938s,16s,Done.
linux,shellsimple,cleanfalse,installfalse,100,240,27M,4632,0m4.442s,16s,Done.
linux,make,cleanfalse,installfalse,100,240,27M,4632,0m4.990s,16s,Done.
linux,grunt,cleanfalse,installfalse,100,316,41M,8691,0m5.407s,18s,Done.
linux,gulp,cleanfalse,installfalse,100,459,40M,8164,0m5.825s,19s,Done.
linux,npm,cleanfalse,installfalse,100,375,31M,5622,0m10.680s,23s,Done.
linux,shell,cleanfalse,installfalse,100,240,27M,4632,0m4.954s,16s,Done.
linux,shellsimple,cleanfalse,installfalse,100,240,27M,4632,0m4.449s,16s,Done.
linux,make,cleanfalse,installfalse,100,240,27M,4632,0m5.008s,16s,Done.
linux,grunt,cleanfalse,installfalse,100,316,41M,8691,0m5.616s,18s,Done.
linux,gulp,cleanfalse,installfalse,100,459,40M,8164,0m5.592s,20s,Done.
linux,npm,cleanfalse,installfalse,100,375,31M,5622,0m10.584s,22s,Done.
linux,shell,cleanfalse,installfalse,100,240,27M,4632,0m4.993s,17s,Done.
linux,shellsimple,cleanfalse,installfalse,100,240,27M,4632,0m4.555s,16s,Done.
linux,make,cleanfalse,installfalse,100,240,27M,4632,0m4.997s,16s,Done.
linux,grunt,cleanfalse,installfalse,100,316,41M,8691,0m5.365s,18s,Done.
linux,gulp,cleanfalse,installfalse,100,459,40M,8164,0m5.517s,18s,Done.
linux,npm,cleanfalse,installfalse,100,375,31M,5622,0m10.395s,22s,Done.
linux,shell,cleanfalse,installfalse,100,240,27M,4632,0m4.835s,16s,Done.
linux,shellsimple,cleanfalse,installfalse,100,240,27M,4632,0m4.502s,16s,Done.
linux,make,cleanfalse,installfalse,100,240,27M,4632,0m5.028s,16s,Done.
linux,grunt,cleanfalse,installfalse,100,316,41M,8691,0m5.543s,18s,Done.
linux,gulp,cleanfalse,installfalse,100,459,40M,8164,0m5.450s,18s,Done.
linux,npm,cleanfalse,installfalse,100,375,31M,5622,0m11.267s,23s,Done.
linux,shell,cleanfalse,installfalse,100,240,27M,4632,0m4.945s,17s,Done.
linux,shellsimple,cleanfalse,installfalse,100,240,27M,4632,0m4.787s,17s,Done.
linux,make,cleanfalse,installfalse,100,240,27M,4632,0m5.091s,16s,Done.
linux,grunt,cleanfalse,installfalse,100,316,41M,8691,0m5.473s,18s,Done.
linux,gulp,cleanfalse,installfalse,100,459,40M,8164,0m5.578s,18s,Done.
