Tool,Total execution (100 passes),Average execution (100 passes),NPM Dependencies,NPM Size,NPM Files
Shell,233.08,2.3308,240,27M,4632
Make,235.65,2.3565,240,27M,4632
Grunt,239.51,2.3951,316,41M,8691
Gulp,253.71,2.5371,458,40M,8159
NPM,581.06,.8106,374,31M,5617